…
## CustomerId

Examining rows per CustomerId to check data row independence.

```r
(entries_per_customer <- train %>% group_by(CustomerId) %>% tally())
```

```
## # A tibble: 23,221 × 2
##    CustomerId     n
##         <dbl> <int>
##  1   15565701     3
##  2   15565706     4
##  3   15565714     3
##  4   15565759     1
##  5   15565779     5
##  6   15565796     8
##  7   15565806     6
##  8   15565807     1
##  9   15565878    12
## 10   15565879     5
## # ℹ 23,211 more rows
```



```r
(entries_per_customer %>% group_by(n) %>% tally())
```

```
## # A tibble: 88 × 2
##        n    nn
##    <int> <int>
##  1     1  9301
##  2     2  2945
##  3     3  1373
##  4     4   929
##  5     5   702
##  6     6   622
##  7     7   492
##  8     8   483
##  9     9   444
## 10    10   435
## # ℹ 78 more rows
```
…
